…
The simulation uses these two rates to step forward in time, continuously updating the oyster's internal concentration based on the changing environmental conditions and water contamination levels.

A reminder; $W_{dw}$ is the dry oyster weight. We are dealing with virus per gram here. 
    
---

# An example simulation

When I combine all aspects, we can model virus accumulation in oysters in a synthetic dataset. The synthetic dataset is generated using:

```julia
sim_days = 12
env_df = generate_synthetic_data(sim_days)

289×5 DataFrame
 Row │ Hour     Temperature_C  Salinity_ppt  TSS_kg_m3   Surface_UVB_W_m2 
     │ Float64  Float64        Float64       Float64     Float64
─────┼────────────────────────────────────────────────────────────────────
   1 │     0.0        14.25         25.0     0.008                0.0
   2 │     1.0        13.9393       24.1204  0.00964863           0.0
  ⋮  │    ⋮           ⋮             ⋮            ⋮              ⋮
 288 │   287.0        14.6118       22.2847  0.0123773            0.0
 289 │   288.0        14.25         19.06    0.0148395            0.0
                                                          280 rows omitted
```
…
